{
  "appPageId" : "df3de7ab-f2c4-4805-b773-afb76a9239fd",
  "componentName" : "siteforce:sldsTwoCol48Layout",
  "id" : "c8c56dca-7140-4df2-8a48-385dd9fae7cb",
  "label" : "Contact Detail",
  "regions" : [ {
    "components" : [ {
      "componentAttributes" : {
        "recordId" : "{!recordId}"
      },
      "componentName" : "forceCommunity:recordHeadline",
      "id" : "c1308310-09e2-4a81-8369-3da89fdaa6dd",
      "renderPriority" : "NEUTRAL",
      "renditionMap" : { },
      "type" : "component"
    } ],
    "id" : "37b4872a-20fd-493a-83b4-e9eefcf7bd2c",
    "regionName" : "header",
    "type" : "region"
  }, {
    "components" : [ {
      "componentAttributes" : {
        "recordId" : "{!recordId}",
        "width" : "MEDIUM"
      },
      "componentName" : "forceCommunity:relatedRecords",
      "id" : "6b4dbec4-88f5-4a30-ba98-62a0a8c8a352",
      "renderPriority" : "NEUTRAL",
      "renditionMap" : { },
      "type" : "component"
    } ],
    "id" : "223e49c1-7cf6-4a83-9ba0-f4e20c3320ac",
    "regionName" : "content",
    "type" : "region"
  }, {
    "id" : "f2183f79-69e4-434a-bcab-8e463473b500",
    "regionName" : "footer",
    "type" : "region"
  }, {
    "components" : [ {
      "componentAttributes" : {
        "customHeadTags" : "",
        "description" : "",
        "title" : "{!Record._Title}"
      },
      "componentName" : "forceCommunity:seoAssistant",
      "id" : "f4fa5c9e-ffda-4c4f-9c47-c0db460e978b",
      "renditionMap" : { },
      "type" : "component"
    } ],
    "id" : "dc94fb2c-4f6f-4833-87a3-a866d1ed0474",
    "regionName" : "sfdcHiddenRegion",
    "type" : "region"
  }, {
    "components" : [ {
      "componentAttributes" : {
        "flowArguments" : "",
        "flowLayout" : "oneColumn",
        "flowName" : "Key_Skills_Badges"
      },
      "componentName" : "forceCommunity:flowCommunity",
      "id" : "ebb47dd5-fb5a-4ebc-abef-f9b6507ce16a",
      "renderPriority" : "NEUTRAL",
      "renditionMap" : { },
      "type" : "component"
    }, {
      "componentAttributes" : {
        "recordId" : "{!recordId}"
      },
      "componentName" : "forceCommunity:recordDetail",
      "id" : "1032675d-4aa8-4131-b2ed-001539d88e95",
      "renderPriority" : "NEUTRAL",
      "renditionMap" : { },
      "type" : "component"
    } ],
    "id" : "12d22268-2aaf-4803-82dd-a230cf8e9624",
    "regionName" : "sidebar",
    "type" : "region"
  } ],
  "themeLayoutType" : "Inner",
  "type" : "view",
  "viewType" : "detail-003"
}