{
  "appPageId" : "df3de7ab-f2c4-4805-b773-afb76a9239fd",
  "componentName" : "siteforce:sldsOneColLayout",
  "id" : "16b03374-a928-4955-a099-3185d4436c53",
  "label" : "Contact Related List",
  "regions" : [ {
    "id" : "0da3c8dc-8aba-414d-a055-30deba436205",
    "regionName" : "header",
    "type" : "region"
  }, {
    "components" : [ {
      "componentAttributes" : {
        "customTitle" : "",
        "parentRecordId" : "{!recordId}",
        "relatedListName" : "{!relationshipApiName}",
        "showBreadCrumbs" : true,
        "showCustomTitle" : false,
        "showManualRefreshButton" : true,
        "showRowNumbers" : true
      },
      "componentName" : "forceCommunity:relatedList",
      "id" : "f48af602-738f-45fc-8233-f0c0ecc63eba",
      "renderPriority" : "NEUTRAL",
      "renditionMap" : { },
      "type" : "component"
    } ],
    "id" : "1e7eb326-7e4d-403b-8efd-0bc5ec30372f",
    "regionName" : "content",
    "type" : "region"
  }, {
    "id" : "3023ba3f-e2ba-445d-8197-9333b994030a",
    "regionName" : "footer",
    "type" : "region"
  } ],
  "themeLayoutType" : "Inner",
  "type" : "view",
  "viewType" : "relatedlist-003"
}