{
  "appPageId" : "df3de7ab-f2c4-4805-b773-afb76a9239fd",
  "componentName" : "siteforce:sldsOneColLayout",
  "id" : "82070f06-ab31-4963-96df-3672730880dc",
  "label" : "Experience List",
  "regions" : [ {
    "id" : "74b00f3b-a9df-4cb7-a37e-7d5c237ddf51",
    "regionName" : "header",
    "type" : "region"
  }, {
    "components" : [ {
      "componentAttributes" : {
        "enableInlineEdit" : true,
        "filterName" : "{!filterId}",
        "layout" : "FULL",
        "pageSize" : 25,
        "scope" : "{!objectName}",
        "showActionBar" : true,
        "showChartsPanel" : true,
        "showDisplay" : "showall",
        "showFilterPanel" : true,
        "showImageIcon" : true,
        "showManualRefreshButton" : true,
        "showObjectName" : true,
        "showPinnedList" : true,
        "showSearchBar" : true
      },
      "componentName" : "forceCommunity:objectHome",
      "id" : "805afbe0-dcc0-4391-9ef7-9d8ab7e910c6",
      "renderPriority" : "NEUTRAL",
      "renditionMap" : { },
      "type" : "component"
    } ],
    "id" : "a2c8f633-1285-49a2-82b2-5f46da12bfb0",
    "regionName" : "content",
    "type" : "region"
  }, {
    "id" : "0869bdff-af4e-41ba-8003-4703cc2cd62a",
    "regionName" : "footer",
    "type" : "region"
  } ],
  "themeLayoutType" : "Inner",
  "type" : "view",
  "viewType" : "list-a02"
}