{
  "appPageId" : "df3de7ab-f2c4-4805-b773-afb76a9239fd",
  "componentName" : "siteforce:sldsOneColLayout",
  "id" : "3051c0e5-6c31-403f-9529-35c5935ac7d7",
  "label" : "Messages",
  "regions" : [ {
    "components" : [ {
      "componentAttributes" : { },
      "componentName" : "forceChatter:messages",
      "id" : "9f1442fa-178d-4932-8307-4553d90c1c1c",
      "renderPriority" : "NEUTRAL",
      "renditionMap" : { },
      "type" : "component"
    } ],
    "id" : "84f62467-8383-4692-b34f-99ee674f5e36",
    "regionName" : "content",
    "type" : "region"
  } ],
  "themeLayoutType" : "Inner",
  "type" : "view",
  "viewType" : "messages"
}