{
  "appPageId" : "df3de7ab-f2c4-4805-b773-afb76a9239fd",
  "componentName" : "siteforce:sldsOneColLayout",
  "id" : "cd57add6-5230-4772-ae29-2eedaf5a5222",
  "label" : "Search",
  "regions" : [ {
    "id" : "1dcb0577-e8f9-4574-8c7e-45075bf39bfe",
    "regionName" : "header",
    "type" : "region"
  }, {
    "components" : [ {
      "componentAttributes" : {
        "scopes" : [ {
          "isPublic" : true,
          "name" : "Experience__c"
        }, {
          "isPublic" : true,
          "name" : "Project__c"
        }, {
          "isPublic" : true,
          "name" : "Certification__c"
        }, {
          "isPublic" : true,
          "name" : "Education__c"
        } ],
        "searchResultFiltering" : true,
        "searchTerm" : "{!term}",
        "showTopResults" : false
      },
      "componentName" : "forceCommunity:search",
      "id" : "4decb4d5-5daf-4ad6-bab5-1d2204a3d9a8",
      "renderPriority" : "NEUTRAL",
      "renditionMap" : { },
      "type" : "component"
    } ],
    "id" : "f55ceb09-3664-414e-828c-ffaa253eed93",
    "regionName" : "content",
    "type" : "region"
  }, {
    "id" : "d70487b0-0345-4b4d-8ec3-6337d69272d9",
    "regionName" : "footer",
    "type" : "region"
  } ],
  "themeLayoutType" : "Inner",
  "type" : "view",
  "viewType" : "global-search"
}