{
    "records": [
        {
            "attributes": {
                "type": "Contact",
                "referenceId": "ContactRef1"
            },
            "Email": "amelia.mj.clarke@gmail.com",
            "FirstName": "Amelia",
            "LastName": "Clarke",
            "LinkedIn__c": "https://www.linkedin.com/in/ameliaclarke/",
            "MailingAddress": {
                "city": "Auckland",
                "country": "New Zealand",
                "geocodeAccuracy": null,
                "latitude": null,
                "longitude": null,
                "postalCode": null,
                "state": null,
                "street": null
            },
            "MailingCity": "Auckland",
            "MailingCountry": "New Zealand",
            "MobilePhone": "02041364024",
            "Name": "Amelia Clarke",
            "Personal_Summary__c": "I am highly motivated and reliable, accustomed to working under pressure and using my own initiative.  I am flexible, quick to pick up new skills and eager to learn from others.  I have consistently produced high and accurate output in multiple areas.  I am keen and willing to learn from the ground up and am constantly looking for ways to improve.",
            "Resume__c": "http://resume.ameliaclarke.me",
            "Title": "Software Developer",
            "Trailhead__c": "https://trailblazer.me/id/amelia",
            "Education__r": {
                "records": [
                    {
                        "attributes": {
                            "type": "Education__c",
                            "referenceId": "Education__cRef1"
                        },
                        "Date__c": "2009 - 2012",
                        "Educational_Institution__c": "The Open University",
                        "End_Date__c": "2012-01-01",
                        "Location__c": "Milton Keynes, United Kingdom",
                        "Name": "BSc (Hons) Computing",
                        "Start_Date__c": "2009-01-01"
                    },
                    {
                        "attributes": {
                            "type": "Education__c",
                            "referenceId": "Education__cRef2"
                        },
                        "Date__c": "1998 - 2002",
                        "Details__c": "Chemistry, Biology, Calculus, Statistics, Sports Science",
                        "Educational_Institution__c": "Cambridge High School",
                        "End_Date__c": "2002-12-01",
                        "Location__c": "Cambridge, New Zealand",
                        "Name": "Bursary",
                        "Start_Date__c": "1998-01-01"
                    }
                ]
            },
            "Community__r": {
                "records": [
                    {
                        "attributes": {
                            "type": "Community__c",
                            "referenceId": "Community__cRef1"
                        },
                        "Date__c": "March 2019 - May 2019",
                        "End_Date__c": "2019-05-01",
                        "Location__c": "Auckland, New Zealand",
                        "Name": "RAD Women Coaching",
                        "Responsibility__c": "<p>http://radwomen.org/rad-coaches/</p><p>Teaching introduction to coding on the Salesforce platform.</p><ul><li>Apex triggers.</li><li>Understanding existing code.</li><li>SOQL and DML statements.</li><li>Bulkifying Apex.</li><li>Basic logic.</li><li>Use resources to aid in Force.com development (e.g., documentation, blogs, tools, etc).</li></ul><p><br></p>",
                        "Role__c": "Volunteer Intro to Coding Instructor",
                        "Start_Date__c": "2019-03-01"
                    },
                    {
                        "attributes": {
                            "type": "Community__c",
                            "referenceId": "Community__cRef2"
                        },
                        "Date__c": "September 2022",
                        "End_Date__c": "2022-09-22",
                        "Location__c": "Auckland, New Zealand",
                        "Name": "Auckland Salesforce Developer Group Presentation",
                        "Responsibility__c": "<p>https://trailblazercommunitygroups.com/events/details/salesforce-salesforce-developer-group-auckland-new-zealand-presents-rollback-city-devops-for-salesforce/ </p><p>I co presented a case study on Enterprise DevOps to the Auckland Salesforce Developer Group.</p>",
                        "Role__c": "Rollback City - Devops for Salesforce Presenter"
                    }
                ]
            },
            "Experience__r": {
                "records": [
                    {
                        "attributes": {
                            "type": "Experience__c",
                            "referenceId": "Experience__cRef1"
                        },
                        "Date__c": "June 2022 - PRESENT",
                        "Duration__c": "4 mos",
                        "Location__c": "Auckland, New Zealand",
                        "Name": "Salesforce",
                        "Role__c": "Senior Manager, Technical Consulting",
                        "Start_Date__c": "2022-06-01"
                    },
                    {
                        "attributes": {
                            "type": "Experience__c",
                            "referenceId": "Experience__cRef2"
                        },
                        "Date__c": "February 2005 - January 2012",
                        "Duration__c": "6 yrs  11 mos",
                        "End_Date__c": "2012-01-01",
                        "Location__c": "Milan, Italy",
                        "Name": "Centro Ippico La Pista",
                        "Responsibility__c": "<ul><li><span>Planning and organising international travel of horses.</span></li><li><span>Managing a team of 2-3 staff.</span></li><li><span>Overseeing the quality of work and offering training.</span></li><li><span>Assigning and prioritising work and monitoring deadlines.</span></li><li><span>Maintaining precise schedules.</span></li><li><span>Assessing nutritional requirements and developing bespoke dietary plans.</span></li><li><span>Creating tailored work plans for individual horses.</span></li><li><span>Maintaining and scheduling time sensitive appointments.</span></li></ul>",
                        "Role__c": "Yard Manager",
                        "Start_Date__c": "2005-02-15"
                    },
                    {
                        "attributes": {
                            "type": "Experience__c",
                            "referenceId": "Experience__cRef3"
                        },
                        "Date__c": "February 2014 - May 2015",
                        "Duration__c": "1 yrs  4 mos",
                        "End_Date__c": "2015-05-13",
                        "Location__c": "Highclere, United Kingdom",
                        "Name": "Hollington Stud",
                        "Responsibility__c": "<ul><li><span>Managing the day to day running of a breeding and competition stud.</span></li><li><span>Leading a team of 1-2 people. </span></li><li><span>Assigning responsibilities and priorities to match skill sets.</span></li><li><span>Scheduling days off and holidays to fit with workloads.</span></li><li><span>Planning competition schedules and preparations.</span></li><li><span>Preparing young stock for sales.</span></li><li><span>Monitoring mare cycles, and foaling.</span></li></ul>",
                        "Role__c": "Yard Manager",
                        "Start_Date__c": "2014-02-01"
                    },
                    {
                        "attributes": {
                            "type": "Experience__c",
                            "referenceId": "Experience__cRef4"
                        },
                        "Date__c": "January 2012 - February 2014",
                        "Duration__c": "2 yrs  2 mos",
                        "End_Date__c": "2014-02-01",
                        "Location__c": "Ewhurst, United Kingdom",
                        "Name": "NT Equine",
                        "Responsibility__c": "<ul><li><span>Overseeing and training working pupils.</span></li><li><span>Preparing and showing horses for sale.</span></li><li><span>Assessing clients requirements and matching to appropriate horses.</span></li></ul>",
                        "Role__c": "Sales Rider",
                        "Start_Date__c": "2012-01-01"
                    },
                    {
                        "attributes": {
                            "type": "Experience__c",
                            "referenceId": "Experience__cRef5"
                        },
                        "Date__c": "September 2021 - June 2022",
                        "Duration__c": "10 mos",
                        "End_Date__c": "2022-06-01",
                        "Location__c": "Auckland, New Zealand",
                        "Name": "Traction on Demand",
                        "Responsibility__c": "<ul><li>Technical Lead / Architect<ul><li>Technical architecture, detailed design, and development on the Salesforce.com platform, both hands-on and as a trusted advisor</li><li>Act as the subject matter expert for Salesforce.com, and provide information to clients around best practices in the CRM and business process space</li><li>Ensuring best practices and consistency are followed in both solutions and tooling</li></ul></li><li>Delivery Lead<ul><li>Work with the clients to understand their current business issues and pain points, identify the desired process models and solution architecture that will address their issues and pain points</li><li>Translate business requirements into well-architected solutions that best leverage the Salesforce platforms and products</li><li>Drive requirement workshops and serve as the Salesforce platform expert</li></ul></li><li>People Management<ul><li>Managing a cross-functional team of direct reports</li><li>Conducting regular 1:1s</li><li>Managing performance and salary reviews</li></ul></li><li>Mentor<ul><li>Coach and mentor junior technical and functional team members</li></ul></li></ul>",
                        "Role__c": "Team Lead, Senior Technical Lead",
                        "Start_Date__c": "2021-09-01"
                    },
                    {
                        "attributes": {
                            "type": "Experience__c",
                            "referenceId": "Experience__cRef6"
                        },
                        "Date__c": "March 2017 - September 2021",
                        "Duration__c": "4 yrs  7 mos",
                        "End_Date__c": "2021-09-01",
                        "Location__c": "Auckland, New Zealand",
                        "Name": "Trineo",
                        "Responsibility__c": "<p>Delivering Salesforce solutions for a wide range of clients. Including Farming, Advertising and Finance sectors.</p><ul><li>Creating robust and scalable CRM software solutions.</li><li>Pairing with team members to debate solutions and solve problems.</li><li>Peer reviewing code to maintain consistency and best practices.</li><li>Participate in Agile ceremonies.</li><li>Building CI/CD pipelines and designing release/branching strategies</li></ul><p><br></p>",
                        "Role__c": "Staff Engineer",
                        "Start_Date__c": "2017-03-01"
                    },
                    {
                        "attributes": {
                            "type": "Experience__c",
                            "referenceId": "Experience__cRef7"
                        },
                        "Date__c": "March 2015 - March 2017",
                        "Duration__c": "2 yrs  1 mos",
                        "End_Date__c": "2017-03-01",
                        "Location__c": "Cambridge, United Kingdom",
                        "Name": "Arcus Global",
                        "Responsibility__c": "<p><span>Development of Salesforce Applications for local governments. Including Housing, Education and Gazetteer. </span></p><ul><li><span>Creating reusable and robust CRM software solutions.</span></li><li><span>Salesoforce development and configuration.</span></li><li><span>Using and customising continuous integration for fast feedback on products.</span></li><li><span>Liaising with clients including participating in discovery and shadowing sessions to gather requirements and presenting completed work during show and tell.</span></li><li><span>Ensuring accuracy of output and compliance with regulations on developed solutions. </span></li><li><span>Working in an Agile team.</span></li><li><span>Analysing user requirements and developing systems that meet their acceptance criteria.</span></li></ul>",
                        "Role__c": "Software Developer",
                        "Start_Date__c": "2015-03-01"
                    }
                ]
            },
            "Projects__r": {
                "records": [
                    {
                        "attributes": {
                            "type": "Project__c",
                            "referenceId": "Project__cRef1"
                        },
                        "Client__c": "Fonterra Australia",
                        "Description__c": "<p>Income Estimator is a tool for farmers to predict future income based on past milk production and estimated future production figures and milk prices.</p><p><br></p><p>As primary developer on this I architected the data model and calculation logic. Designs and front end build were produced by a design company and I adapted to Visualforce.</p><p><br></p><p>It is built using Visualforce in a Customer Community using custom settings for admins to change seasonal rates</p>",
                        "Name": "Income Estimator"
                    },
                    {
                        "attributes": {
                            "type": "Project__c",
                            "referenceId": "Project__cRef2"
                        },
                        "Client__c": "Fisher Funds",
                        "Description__c": "<p>Fisher Funds Customer Portal allows users to view their investments and update their personal data.</p><p><br></p><p>As a developer on this project I was responsible for building components from designs and updating APIs to use newly created endpoints to improve page load times.</p><p><br></p><p>It is built on Heroku using React.js with a hub and spoke integration pattern to Salesforce and other systems.</p>",
                        "Name": "Fisher Funds Customer Portal"
                    },
                    {
                        "attributes": {
                            "type": "Project__c",
                            "referenceId": "Project__cRef3"
                        },
                        "Client__c": "Fonterra Milkyway",
                        "Description__c": "<p>Enterprise Search allows Fonterra employees to search across multiple systems including Salesforce, Service </p><p>Now, Confluence, SharePoint.</p><p><br></p><p>As the Salesforce developer I was responsible for configuring the community, permissions and connected app.</p><p><br></p><p>It is built using BA Insight SmartHub on an Employee Community.</p>",
                        "Name": "Enterprise Search"
                    },
                    {
                        "attributes": {
                            "type": "Project__c",
                            "referenceId": "Project__cRef4"
                        },
                        "Client__c": "Arcus Global",
                        "Description__c": "<p>The Arcus Gazetteer provides the ability to manage the local land and property gazetteer. </p><p><br></p><p>On this project I built integrations from Salesforce to public registers </p><p><br></p><p><span style=\"background-color: rgb(255, 255, 255); color: rgb(62, 62, 60);\">Arcus Gazetteer is built as a Salesforce Managed Package</span></p>",
                        "Name": "Arcus Gazetteer"
                    },
                    {
                        "attributes": {
                            "type": "Project__c",
                            "referenceId": "Project__cRef5"
                        },
                        "Client__c": "Fonterra Farmers",
                        "Description__c": "<p>Farm Insights are c<span style=\"color: rgb(62, 62, 60); background-color: rgb(255, 255, 255);\">omplex calculations to enable farmers to benchmark themselves on a range of environmental, animal welfare and milk quality measures.</span></p><p><br></p><p>On this project I was Technical Lead and Delivery Lead, I worked closely with the client to prioritise features and determine dependencies. I designed the data model and calculation logic to be adaptable for changes in future seasons and coordinated our team of 4 developers and an external designer to meet season rollover deadlines.</p><p><br></p><p>It is built using a Scheduled Apex Batch (to improve page load times and support Salesforce reporting) and LWC on a Customer Community.</p>",
                        "Name": "Farm Insights"
                    },
                    {
                        "attributes": {
                            "type": "Project__c",
                            "referenceId": "Project__cRef6"
                        },
                        "Client__c": "Deloitte",
                        "Description__c": "<p>Marketing Project Management is a set of tools to support complex data views to support marketing planning. It consists of <span style=\"color: rgb(62, 62, 60); background-color: rgb(255, 255, 255);\">Table, Kanban and Journey style views to allow users to design workflows from scratch or from templates.</span></p><p><br></p><p>As Technical Lead I was responsible for the architecture and data model as well as being a developer. I supported a team of 4 developers to partition work to avoid git conflicts and blockers. I was responsible for working closely with the client to determine requirements and present demos. I implemented Continuous Integration using CircleCI which I later transitioned to GitHub actions.</p><p><br></p><p>It is built using LWC <span style=\"color: rgb(62, 62, 60); background-color: rgb(255, 255, 255);\">making use of browser drag and drop API for updating records. It is used</span> as an accelerator package with data driven configuration to allow adaption to end users needs.</p>",
                        "Name": "Marketing Project Management"
                    },
                    {
                        "attributes": {
                            "type": "Project__c",
                            "referenceId": "Project__cRef7"
                        },
                        "Client__c": "Ryman Healthcare",
                        "Description__c": "<p>Ryman Healthcare is a greenfield Sales and Service Cloud implementation. Sales Cloud is used to support the sales of housing and hospital rooms, whereas Service Cloud is used to support the maintenance of buildings and facilities including the renovations of housing.</p><p><br></p><p>As Senior Technical Lead I supported and mentored a junior Technical Lead. We worked together on the architecture and data model while supporting junior developers performing the Salesforce configuration and development. I built the Continuous Integration using Azure Pipelines.</p><p><br></p><p>Ryman is built in Salesforce Lightning making heavy use of screen flows and declarative tools to allow the client to take over admin support.</p>",
                        "Name": "Sales and Service Cloud Implementation"
                    },
                    {
                        "attributes": {
                            "type": "Project__c",
                            "referenceId": "Project__cRef8"
                        },
                        "Client__c": "Fonterra Farmers",
                        "Description__c": "<p>SAP CRM Transition was a Salesforce build to replace SAP CRM with Salesforce becoming the master of data.</p><p><br></p><p>As the single developer on this project I was designing the architecture and building the solution. I was working with other vendors to coordinate solutions, and bug investigation.</p><p><br></p><p>It uses Triggers to publish Platform Events to build a queuing and retry mechanism for outbound integrations via SAP PO middleware along with custom webservices and SOAP API to consume requests.</p>",
                        "Name": "SAP CRM Transition"
                    },
                    {
                        "attributes": {
                            "type": "Project__c",
                            "referenceId": "Project__cRef9"
                        },
                        "Client__c": "Peterborough City Council",
                        "Description__c": "<p>Public housing is a common housing register to allow people to apply for and be allocated to public housing </p><p><br></p><p>As a developer I was responsible for both internal Salesforce and Community build.</p><p><br></p><p>Public housing is built on a Customer Community using Visualforce with backend tools using triggers and workflows.</p>",
                        "Name": "Public Housing"
                    },
                    {
                        "attributes": {
                            "type": "Project__c",
                            "referenceId": "Project__cRef10"
                        },
                        "Client__c": "Fonterra",
                        "Description__c": "<p>The Fonterra Release Train project involved migrating from change sets deployments to source driven CI/CD.</p><p><br></p><p>As part of this project I built bash scripts to deploy using SFDX with a slack integration to give developers expeditious notification of build status.  I also built static analysis and validation deployments on creation and update of pull requests and was responsibly for supporting team member through the transition.</p><p><br></p><p>Fonterra release train uses Bitbucket version control with Bamboo for CI/CD.</p><p><br></p><p><br></p>",
                        "Name": "Release Train"
                    }
                ]
            },
            "Certifications__r": {
                "records": [
                    {
                        "attributes": {
                            "type": "Certification__c",
                            "referenceId": "Certification__cRef1"
                        },
                        "Date__c": "March 2019",
                        "Issue_Date__c": "2019-03-04",
                        "Issuing_Organisation__c": "Salesforce",
                        "Name": "Salesforce Certified Development Lifecycle and Deployment Architect",
                        "Type__c": "Salesforce Architect"
                    },
                    {
                        "attributes": {
                            "type": "Certification__c",
                            "referenceId": "Certification__cRef2"
                        },
                        "Date__c": "January 2019",
                        "Issue_Date__c": "2019-01-31",
                        "Issuing_Organisation__c": "Salesforce",
                        "Name": "Salesforce Certified Application Architect",
                        "Type__c": "Salesforce Architect"
                    },
                    {
                        "attributes": {
                            "type": "Certification__c",
                            "referenceId": "Certification__cRef3"
                        },
                        "Date__c": "May 2016",
                        "Issue_Date__c": "2016-05-23",
                        "Issuing_Organisation__c": "Salesforce",
                        "Name": "Salesforce Certified Administrator",
                        "Type__c": "Salesforce Administrator"
                    },
                    {
                        "attributes": {
                            "type": "Certification__c",
                            "referenceId": "Certification__cRef4"
                        },
                        "Date__c": "January 2019",
                        "Issue_Date__c": "2019-01-15",
                        "Issuing_Organisation__c": "Salesforce",
                        "Name": "Salesforce Certified Sharing and Visibility Architect",
                        "Type__c": "Salesforce Architect"
                    },
                    {
                        "attributes": {
                            "type": "Certification__c",
                            "referenceId": "Certification__cRef5"
                        },
                        "Date__c": "February 2020",
                        "Issue_Date__c": "2020-02-24",
                        "Issuing_Organisation__c": "Salesforce",
                        "Name": "Salesforce Certified Platform Developer II",
                        "Type__c": "Salesforce Developer"
                    },
                    {
                        "attributes": {
                            "type": "Certification__c",
                            "referenceId": "Certification__cRef6"
                        },
                        "Date__c": "January 2016",
                        "Issue_Date__c": "2016-01-15",
                        "Issuing_Organisation__c": "Salesforce",
                        "Name": "Salesforce Certified Platform App Builder",
                        "Type__c": "Salesforce Developer"
                    },
                    {
                        "attributes": {
                            "type": "Certification__c",
                            "referenceId": "Certification__cRef7"
                        },
                        "Date__c": "February 2019",
                        "Issue_Date__c": "2019-02-24",
                        "Issuing_Organisation__c": "Salesforce",
                        "Name": "Salesforce Certified Integration Architect",
                        "Type__c": "Salesforce Architect"
                    },
                    {
                        "attributes": {
                            "type": "Certification__c",
                            "referenceId": "Certification__cRef8"
                        },
                        "Date__c": "June 2018",
                        "Issue_Date__c": "2018-06-07",
                        "Issuing_Organisation__c": "Salesforce",
                        "Name": "Salesforce Certified Platform Developer I",
                        "Type__c": "Salesforce Developer"
                    },
                    {
                        "attributes": {
                            "type": "Certification__c",
                            "referenceId": "Certification__cRef9"
                        },
                        "Date__c": "April 2019",
                        "Issue_Date__c": "2019-04-03",
                        "Issuing_Organisation__c": "Salesforce",
                        "Name": "Salesforce Certified Identity and Access Management Architect",
                        "Type__c": "Salesforce Architect"
                    },
                    {
                        "attributes": {
                            "type": "Certification__c",
                            "referenceId": "Certification__cRef10"
                        },
                        "Date__c": "April 2019",
                        "Issue_Date__c": "2019-04-03",
                        "Issuing_Organisation__c": "Salesforce",
                        "Name": "Salesforce Certified System Architect",
                        "Type__c": "Salesforce Architect"
                    },
                    {
                        "attributes": {
                            "type": "Certification__c",
                            "referenceId": "Certification__cRef11"
                        },
                        "Date__c": "January 2019",
                        "Issue_Date__c": "2019-01-31",
                        "Issuing_Organisation__c": "Salesforce",
                        "Name": "Salesforce Certified Data Architect",
                        "Type__c": "Salesforce Architect"
                    },
                    {
                        "attributes": {
                            "type": "Certification__c",
                            "referenceId": "Certification__cRef12"
                        },
                        "Date__c": "September 2022",
                        "Issue_Date__c": "2022-09-06",
                        "Issuing_Organisation__c": "Salesforce",
                        "Name": "Salesforce Certified OmniStudio Consultant",
                        "Type__c": "Salesforce Consultant"
                    }
                ]
            },
            "Key_Skills__r": {
                "records": [
                    {
                        "attributes": {
                            "type": "Key_Skill__c",
                            "referenceId": "Key_Skill__cRef1"
                        },
                        "Name": "OmniStudio",
                        "Type__c": "Technology"
                    },
                    {
                        "attributes": {
                            "type": "Key_Skill__c",
                            "referenceId": "Key_Skill__cRef2"
                        },
                        "Name": "Conga",
                        "Type__c": "Technology"
                    },
                    {
                        "attributes": {
                            "type": "Key_Skill__c",
                            "referenceId": "Key_Skill__cRef3"
                        },
                        "Name": "Communities",
                        "Type__c": "Technology"
                    },
                    {
                        "attributes": {
                            "type": "Key_Skill__c",
                            "referenceId": "Key_Skill__cRef4"
                        },
                        "Name": "Excellent Communication",
                        "Type__c": "Personal"
                    },
                    {
                        "attributes": {
                            "type": "Key_Skill__c",
                            "referenceId": "Key_Skill__cRef5"
                        },
                        "Name": "DevOps",
                        "Type__c": "Tooling"
                    },
                    {
                        "attributes": {
                            "type": "Key_Skill__c",
                            "referenceId": "Key_Skill__cRef6"
                        },
                        "Name": "Highly Organised",
                        "Type__c": "Personal"
                    },
                    {
                        "attributes": {
                            "type": "Key_Skill__c",
                            "referenceId": "Key_Skill__cRef7"
                        },
                        "Name": "Flexible",
                        "Type__c": "Personal"
                    },
                    {
                        "attributes": {
                            "type": "Key_Skill__c",
                            "referenceId": "Key_Skill__cRef8"
                        },
                        "Name": "Form Assembly",
                        "Type__c": "Technology"
                    },
                    {
                        "attributes": {
                            "type": "Key_Skill__c",
                            "referenceId": "Key_Skill__cRef9"
                        },
                        "Name": "Quick Learner",
                        "Type__c": "Personal"
                    },
                    {
                        "attributes": {
                            "type": "Key_Skill__c",
                            "referenceId": "Key_Skill__cRef10"
                        },
                        "Name": "Agile",
                        "Type__c": "Methodology"
                    },
                    {
                        "attributes": {
                            "type": "Key_Skill__c",
                            "referenceId": "Key_Skill__cRef11"
                        },
                        "Name": "Design Thinking",
                        "Type__c": "Methodology"
                    },
                    {
                        "attributes": {
                            "type": "Key_Skill__c",
                            "referenceId": "Key_Skill__cRef12"
                        },
                        "Name": "Service Cloud",
                        "Type__c": "Technology"
                    },
                    {
                        "attributes": {
                            "type": "Key_Skill__c",
                            "referenceId": "Key_Skill__cRef13"
                        },
                        "Name": "Sales Cloud",
                        "Type__c": "Technology"
                    },
                    {
                        "attributes": {
                            "type": "Key_Skill__c",
                            "referenceId": "Key_Skill__cRef14"
                        },
                        "Name": "LWC",
                        "Type__c": "Technology"
                    },
                    {
                        "attributes": {
                            "type": "Key_Skill__c",
                            "referenceId": "Key_Skill__cRef15"
                        },
                        "Name": "CI/CD",
                        "Type__c": "Tooling"
                    },
                    {
                        "attributes": {
                            "type": "Key_Skill__c",
                            "referenceId": "Key_Skill__cRef16"
                        },
                        "Name": "Apex",
                        "Type__c": "Technology"
                    },
                    {
                        "attributes": {
                            "type": "Key_Skill__c",
                            "referenceId": "Key_Skill__cRef17"
                        },
                        "Name": "Version Control",
                        "Type__c": "Tooling"
                    },
                    {
                        "attributes": {
                            "type": "Key_Skill__c",
                            "referenceId": "Key_Skill__cRef18"
                        },
                        "Name": "Flows",
                        "Type__c": "Technology"
                    },
                    {
                        "attributes": {
                            "type": "Key_Skill__c",
                            "referenceId": "Key_Skill__cRef19"
                        },
                        "Name": "SFDMU",
                        "Type__c": "Tooling"
                    },
                    {
                        "attributes": {
                            "type": "Key_Skill__c",
                            "referenceId": "Key_Skill__cRef20"
                        },
                        "Name": "Mentor",
                        "Type__c": "Personal"
                    },
                    {
                        "attributes": {
                            "type": "Key_Skill__c",
                            "referenceId": "Key_Skill__cRef21"
                        },
                        "Name": "Visualforce",
                        "Type__c": "Technology"
                    },
                    {
                        "attributes": {
                            "type": "Key_Skill__c",
                            "referenceId": "Key_Skill__cRef22"
                        },
                        "Name": "Integrations",
                        "Type__c": "Technology"
                    },
                    {
                        "attributes": {
                            "type": "Key_Skill__c",
                            "referenceId": "Key_Skill__cRef23"
                        },
                        "Name": "SFDX",
                        "Type__c": "Tooling"
                    },
                    {
                        "attributes": {
                            "type": "Key_Skill__c",
                            "referenceId": "Key_Skill__cRef24"
                        },
                        "Name": "Team Lead",
                        "Type__c": "Personal"
                    }
                ]
            }
        }
    ]
}