{
  "activeViewId" : "1fd89ab0-b4d8-45c3-accd-3a02eec6aca0",
  "appPageId" : "df3de7ab-f2c4-4805-b773-afb76a9239fd",
  "configurationTags" : [ ],
  "id" : "55ce1c7a-a92f-483f-80e0-78db9c259554",
  "label" : "Feed Detail",
  "routeType" : "feeditem-generic",
  "type" : "route",
  "urlPrefix" : "feed"
}