{
  "activeViewId" : "75a6b40e-152f-42c8-a883-39d517c773be",
  "appPageId" : "df3de7ab-f2c4-4805-b773-afb76a9239fd",
  "configurationTags" : [ ],
  "id" : "c8ab5bde-1122-406c-9e5a-a2ee7b36f53c",
  "label" : "File List",
  "routeType" : "list-069",
  "type" : "route",
  "urlPrefix" : "contentdocument"
}