{
  "activeViewId" : "dcabfb68-733e-42bb-acd0-1919bc870382",
  "appPageId" : "df3de7ab-f2c4-4805-b773-afb76a9239fd",
  "configurationTags" : [ ],
  "id" : "6ac61a2f-7fee-4ab6-8bd4-e8a55c1e1962",
  "label" : "Flow",
  "pageAccess" : "UseParent",
  "routeType" : "flow",
  "type" : "route",
  "urlPrefix" : "flow"
}