{
  "activeViewId" : "c5aac83e-396d-4d34-965c-19be14cb9db3",
  "appPageId" : "9d937b1b-5223-449a-930b-a145407e7323",
  "configurationTags" : [ ],
  "id" : "67b0cab4-7e66-476b-b30e-94f484374234",
  "label" : "Login Error",
  "routeType" : "login-error",
  "type" : "route",
  "urlPrefix" : "error"
}