{
  "activeViewId" : "d6dff0a4-d5f8-4fe5-be26-2800bd3efc85",
  "appPageId" : "df3de7ab-f2c4-4805-b773-afb76a9239fd",
  "configurationTags" : [ ],
  "id" : "7890de62-9a9c-48e0-a9a8-bb60b6cb8c6d",
  "label" : "Record List",
  "pageAccess" : "UseParent",
  "routeType" : "list",
  "type" : "route",
  "urlPrefix" : "recordlist"
}