{
  "activeViewId" : "b42ec1bb-81a6-4376-997b-7ff1fc331bbb",
  "appPageId" : "df3de7ab-f2c4-4805-b773-afb76a9239fd",
  "configurationTags" : [ ],
  "id" : "c111bdea-b215-4323-bd2d-62259e81e202",
  "label" : "Related Record List",
  "pageAccess" : "UseParent",
  "routeType" : "relatedlist",
  "type" : "route",
  "urlPrefix" : "relatedlist"
}