{
  "activeViewId" : "cd57add6-5230-4772-ae29-2eedaf5a5222",
  "appPageId" : "df3de7ab-f2c4-4805-b773-afb76a9239fd",
  "configurationTags" : [ ],
  "id" : "753614bf-4f50-4339-9a59-60d67748205c",
  "label" : "Search",
  "pageAccess" : "UseParent",
  "routeType" : "global-search",
  "type" : "route",
  "urlPrefix" : "global-search"
}