{
  "activeViewId" : "fde386e8-a8d7-4bc1-ab08-239d2619eed5",
  "appPageId" : "df3de7ab-f2c4-4805-b773-afb76a9239fd",
  "configurationTags" : [ ],
  "id" : "ffcd35ed-7ce2-497d-babc-6a3a2bb5d122",
  "label" : "User List",
  "routeType" : "list-005",
  "type" : "route",
  "urlPrefix" : "profile"
}