{
  "forgotPasswordRouteId" : "f0f951c7-2f2f-4704-a279-d17db5574dc5",
  "isAvailableToGuests" : true,
  "isFilteredComponentsView" : false,
  "isProgressiveRenderingEnabled" : false,
  "loginAppPageId" : "9d937b1b-5223-449a-930b-a145407e7323",
  "mainAppPageId" : "df3de7ab-f2c4-4805-b773-afb76a9239fd",
  "preferredDomain" : "none",
  "selfRegistrationRouteId" : "a142c707-6012-4bf0-963f-1c33f0562fb4",
  "trustedSitesForScript" : [ {
    "id" : "2415e952-381a-48d8-8d4f-fa615ef27f55",
    "isActive" : true,
    "trustedSiteName" : "Hotjar Static",
    "trustedSiteUrl" : "https://static.hotjar.com/",
    "type" : "trustedSitesForScripts"
  }, {
    "id" : "84155849-d57a-4163-8d45-0557e2eeee60",
    "isActive" : true,
    "trustedSiteName" : "Hotjar  Script",
    "trustedSiteUrl" : "https://script.hotjar.com/",
    "type" : "trustedSitesForScripts"
  }, {
    "id" : "c4e121b9-ee7c-4653-be24-df9d061ce66c",
    "isActive" : true,
    "trustedSiteName" : "www.google-analytics.com",
    "trustedSiteUrl" : "https://www.google-analytics.com",
    "type" : "trustedSitesForScripts"
  }, {
    "id" : "551a4b7b-f7b3-4792-aafc-8077282f68d2",
    "isActive" : true,
    "trustedSiteName" : "stats.g.doubleclick.net",
    "trustedSiteUrl" : "https://stats.g.doubleclick.net",
    "type" : "trustedSitesForScripts"
  }, {
    "id" : "221dd48f-8dc8-4ef4-8ff3-60750981ad7d",
    "isActive" : true,
    "trustedSiteName" : "www.googletagmanager.com",
    "trustedSiteUrl" : "https://www.googletagmanager.com/gtag/js",
    "type" : "trustedSitesForScripts"
  } ],
  "type" : "site"
}